<?xml version="1.0" encoding="utf-8"?>
<!-- Generator: Adobe Illustrator 21.0.2, SVG Export Plug-In . SVG Version: 6.00 Build 0)  -->
<svg version="1.1" id="Layer_1" xmlns="http://www.w3.org/2000/svg" xmlns:xlink="http://www.w3.org/1999/xlink" x="0px" y="0px"
	 viewBox="0 0 160 66.8" style="enable-background:new 0 0 160 66.8;" xml:space="preserve">
<style type="text/css">
	.st0{fill:#6D0F19;}
	.st1{fill:#CC2026;}
	.st2{fill:#FFFFFF;}
</style>
<g>
	<g>
		<path class="st0" d="M0.9,55.4H0v-5.6h1.5l1.7,3.5l1.7-3.5h1.5v5.6H5.4v-4.4l-1.9,3.9H2.9l-1.9-3.9V55.4z"/>
		<path class="st0" d="M9.1,54.2l-0.6,1.3h-1l2.5-5.6h1l2.5,5.6h-1l-0.6-1.3H9.1z M11.5,53.3l-1-2.3l-1,2.3H11.5z"/>
		<path class="st0" d="M14.7,49.8h0.9v2.7l2.6-2.7h1.2l-2.2,2.4l2.3,3.1h-1.1L16.5,53l-0.8,0.9v1.6h-0.9V49.8z"/>
		<path class="st0" d="M20.8,49.8h0.9v5.6h-0.9V49.8z"/>
		<path class="st0" d="M28,49.8h0.9v5.6h-1l-3.2-4.1v4.1h-0.9v-5.6h0.9L28,54V49.8z"/>
		<path class="st0" d="M34.8,52.7h0.9v1.9c-0.5,0.6-1.3,0.9-2.3,0.9c-0.8,0-1.5-0.3-2.1-0.8c-0.6-0.5-0.8-1.2-0.8-2.1
			c0-0.8,0.3-1.5,0.9-2.1c0.6-0.6,1.3-0.8,2.1-0.8c0.8,0,1.5,0.2,2,0.7L35,51.1c-0.2-0.2-0.4-0.3-0.7-0.4c-0.2-0.1-0.5-0.1-0.8-0.1
			c-0.6,0-1,0.2-1.4,0.5c-0.4,0.4-0.6,0.8-0.6,1.4c0,0.6,0.2,1.1,0.6,1.4c0.4,0.4,0.8,0.5,1.4,0.5c0.5,0,1-0.1,1.3-0.3V52.7z"/>
		<path class="st0" d="M42,49.8h0.9v5.6H42V49.8z"/>
		<path class="st0" d="M49.1,49.8h0.9v5.6h-1l-3.2-4.1v4.1h-0.9v-5.6h0.9l3.2,4.2V49.8z"/>
		<path class="st0" d="M56.3,50.6c0.5,0.5,0.8,1.2,0.8,2c0,0.9-0.3,1.6-0.8,2.1c-0.5,0.5-1.3,0.8-2.4,0.8h-1.9v-5.6H54
			C55,49.8,55.8,50.1,56.3,50.6z M56.2,52.6c0-1.3-0.7-1.9-2.2-1.9H53v3.8h1c0.7,0,1.2-0.2,1.6-0.5C56,53.7,56.2,53.3,56.2,52.6z"/>
		<path class="st0" d="M58.8,49.8h0.9v5.6h-0.9V49.8z"/>
		<path class="st0" d="M62.6,54.2L62,55.4h-1l2.5-5.6h1l2.5,5.6h-1l-0.6-1.3H62.6z M65,53.3L64,51l-1,2.3H65z"/>
		<path class="st0" d="M72.4,49.8h0.9v5.6h-1l-3.2-4.1v4.1h-0.9v-5.6h0.9l3.2,4.2V49.8z"/>
		<path class="st0" d="M80.6,54.2l-0.6,1.3h-1l2.5-5.6h1l2.5,5.6h-1l-0.6-1.3H80.6z M83,53.3L82,51l-1,2.3H83z"/>
		<path class="st0" d="M90.5,50.6c0.5,0.5,0.8,1.2,0.8,2c0,0.9-0.3,1.6-0.8,2.1c-0.5,0.5-1.3,0.8-2.4,0.8h-1.9v-5.6h1.9
			C89.2,49.8,89.9,50.1,90.5,50.6z M90.3,52.6c0-1.3-0.7-1.9-2.2-1.9h-0.9v3.8h1c0.7,0,1.2-0.2,1.6-0.5
			C90.2,53.7,90.3,53.3,90.3,52.6z"/>
		<path class="st0" d="M93.9,55.4H93v-5.6h1.5l1.7,3.5l1.7-3.5h1.5v5.6h-0.9v-4.4l-1.9,3.9h-0.5l-1.9-3.9V55.4z"/>
		<path class="st0" d="M101.3,49.8h0.9v5.6h-0.9V49.8z"/>
		<path class="st0" d="M108.5,49.8h0.9v5.6h-1l-3.2-4.1v4.1h-0.9v-5.6h0.9l3.2,4.2V49.8z"/>
		<path class="st0" d="M111.4,49.8h0.9v5.6h-0.9V49.8z"/>
		<path class="st0" d="M116.1,50.6c-0.3,0-0.5,0.1-0.7,0.2c-0.2,0.1-0.3,0.3-0.3,0.5c0,0.2,0.1,0.4,0.3,0.5c0.2,0.1,0.5,0.2,1.1,0.4
			c0.6,0.1,1,0.3,1.3,0.6c0.3,0.3,0.4,0.6,0.4,1.1c0,0.5-0.2,0.9-0.6,1.2c-0.4,0.3-0.9,0.5-1.4,0.5c-0.9,0-1.6-0.3-2.3-0.9l0.6-0.7
			c0.6,0.5,1.1,0.7,1.8,0.7c0.3,0,0.5-0.1,0.7-0.2c0.2-0.1,0.3-0.3,0.3-0.5c0-0.2-0.1-0.4-0.3-0.5c-0.2-0.1-0.5-0.2-0.9-0.3
			c-0.4-0.1-0.7-0.2-0.9-0.3c-0.2-0.1-0.4-0.2-0.6-0.3c-0.3-0.2-0.5-0.6-0.5-1.2c0-0.5,0.2-0.9,0.6-1.2c0.4-0.3,0.8-0.4,1.4-0.4
			c0.4,0,0.7,0.1,1.1,0.2c0.4,0.1,0.7,0.3,0.9,0.5l-0.5,0.7c-0.2-0.1-0.4-0.3-0.7-0.4C116.7,50.6,116.4,50.6,116.1,50.6z"/>
		<path class="st0" d="M122,50.7v4.7h-0.9v-4.7h-1.7v-0.9h4.3v0.9H122z"/>
		<path class="st0" d="M129.7,51.7c0,0.9-0.4,1.5-1.2,1.7l1.5,2h-1.2l-1.3-1.9h-1.2v1.9h-0.9v-5.6h2.1c0.9,0,1.5,0.1,1.8,0.4
			C129.5,50.6,129.7,51,129.7,51.7z M128.4,52.4c0.2-0.2,0.3-0.4,0.3-0.8c0-0.4-0.1-0.6-0.3-0.8c-0.2-0.1-0.5-0.2-1.1-0.2h-1.2v2
			h1.2C127.9,52.7,128.2,52.6,128.4,52.4z"/>
		<path class="st0" d="M132.3,54.2l-0.6,1.3h-1l2.5-5.6h1l2.5,5.6h-1l-0.6-1.3H132.3z M134.7,53.3l-1-2.3l-1,2.3H134.7z"/>
		<path class="st0" d="M139.6,50.7v4.7h-0.9v-4.7H137v-0.9h4.3v0.9H139.6z"/>
		<path class="st0" d="M147.3,54.7c-0.6,0.5-1.3,0.8-2.1,0.8c-0.8,0-1.5-0.3-2.1-0.8c-0.6-0.5-0.8-1.2-0.8-2.1s0.3-1.5,0.8-2.1
			c0.6-0.6,1.3-0.8,2.1-0.8c0.8,0,1.5,0.3,2.1,0.8c0.6,0.6,0.8,1.2,0.8,2.1S147.9,54.1,147.3,54.7z M146.6,51.2
			c-0.4-0.4-0.8-0.6-1.4-0.6c-0.6,0-1,0.2-1.4,0.6c-0.4,0.4-0.6,0.9-0.6,1.4c0,0.6,0.2,1,0.6,1.4c0.4,0.4,0.8,0.6,1.4,0.6
			c0.6,0,1-0.2,1.4-0.6c0.4-0.4,0.6-0.9,0.6-1.4C147.2,52,147,51.6,146.6,51.2z"/>
		<path class="st0" d="M154.3,51.7c0,0.9-0.4,1.5-1.2,1.7l1.5,2h-1.2l-1.3-1.9h-1.2v1.9h-0.9v-5.6h2.1c0.9,0,1.5,0.1,1.8,0.4
			C154.1,50.6,154.3,51,154.3,51.7z M153,52.4c0.2-0.2,0.3-0.4,0.3-0.8c0-0.4-0.1-0.6-0.3-0.8c-0.2-0.1-0.5-0.2-1.1-0.2h-1.2v2h1.2
			C152.5,52.7,152.8,52.6,153,52.4z"/>
		<path class="st0" d="M157.8,50.6c-0.3,0-0.5,0.1-0.7,0.2c-0.2,0.1-0.3,0.3-0.3,0.5c0,0.2,0.1,0.4,0.3,0.5c0.2,0.1,0.5,0.2,1.1,0.4
			c0.6,0.1,1,0.3,1.3,0.6c0.3,0.3,0.4,0.6,0.4,1.1c0,0.5-0.2,0.9-0.6,1.2c-0.4,0.3-0.8,0.5-1.4,0.5c-0.9,0-1.6-0.3-2.3-0.9l0.6-0.7
			c0.6,0.5,1.2,0.7,1.8,0.7c0.3,0,0.5-0.1,0.7-0.2c0.2-0.1,0.3-0.3,0.3-0.5c0-0.2-0.1-0.4-0.3-0.5c-0.2-0.1-0.5-0.2-0.9-0.3
			c-0.4-0.1-0.7-0.2-0.9-0.3c-0.2-0.1-0.4-0.2-0.6-0.3c-0.3-0.2-0.5-0.6-0.5-1.2c0-0.5,0.2-0.9,0.6-1.2c0.4-0.3,0.8-0.4,1.4-0.4
			c0.4,0,0.7,0.1,1.1,0.2c0.4,0.1,0.7,0.3,0.9,0.5l-0.5,0.7c-0.2-0.1-0.4-0.3-0.7-0.4C158.4,50.6,158.1,50.6,157.8,50.6z"/>
	</g>
	<g>
		<path class="st0" d="M57.2,61.9c-0.3,0-0.5,0.1-0.7,0.2c-0.2,0.1-0.3,0.3-0.3,0.5c0,0.2,0.1,0.4,0.3,0.5c0.2,0.1,0.6,0.2,1.1,0.4
			c0.6,0.1,1,0.3,1.3,0.6c0.3,0.2,0.4,0.6,0.4,1.1c0,0.5-0.2,0.9-0.5,1.2c-0.4,0.3-0.9,0.5-1.4,0.5c-0.9,0-1.7-0.3-2.3-0.9l0.6-0.7
			c0.6,0.5,1.1,0.7,1.8,0.7c0.3,0,0.5-0.1,0.7-0.2c0.2-0.1,0.3-0.3,0.3-0.5c0-0.2-0.1-0.4-0.3-0.5c-0.2-0.1-0.5-0.2-0.9-0.3
			c-0.4-0.1-0.7-0.2-0.9-0.3c-0.2-0.1-0.4-0.2-0.6-0.3c-0.3-0.3-0.5-0.6-0.5-1.2c0-0.5,0.2-0.9,0.6-1.2c0.4-0.3,0.8-0.4,1.4-0.4
			c0.4,0,0.7,0.1,1.1,0.2c0.4,0.1,0.7,0.3,0.9,0.5l-0.5,0.7c-0.2-0.1-0.4-0.3-0.7-0.4C57.7,61.9,57.5,61.9,57.2,61.9z"/>
		<path class="st0" d="M61,61.2h0.9v5.6H61V61.2z"/>
		<path class="st0" d="M68.2,61.2h0.9v5.6h-1l-3.2-4.1v4.1H64v-5.6h0.9l3.2,4.2V61.2z"/>
		<path class="st0" d="M73.7,65.9c0.3,0,0.6-0.1,0.8-0.2c0.2-0.1,0.5-0.3,0.7-0.5l0.6,0.6c-0.6,0.7-1.3,1-2.2,1
			c-0.8,0-1.5-0.3-2.1-0.8c-0.6-0.5-0.8-1.2-0.8-2.1c0-0.8,0.3-1.5,0.9-2.1c0.6-0.6,1.3-0.8,2.1-0.8c0.9,0,1.6,0.3,2.2,1l-0.6,0.7
			c-0.3-0.3-0.5-0.4-0.8-0.5c-0.2-0.1-0.5-0.2-0.8-0.2c-0.6,0-1,0.2-1.4,0.5c-0.4,0.4-0.6,0.8-0.6,1.4c0,0.6,0.2,1,0.6,1.4
			C72.7,65.7,73.2,65.9,73.7,65.9z"/>
		<path class="st0" d="M81.4,61.2V62h-3v1.5h2.7v0.8h-2.7v1.5h3.1v0.9h-4v-5.6H81.4z"/>
		<path class="st0" d="M85.3,61.2h2v5.6h-0.9V62h-1.1V61.2z"/>
		<path class="st0" d="M90.7,66c0.5,0,0.9-0.2,1.1-0.5c0.2-0.3,0.4-0.8,0.4-1.4c-0.1,0.1-0.3,0.3-0.6,0.4c-0.3,0.1-0.5,0.2-0.8,0.2
			c-0.5,0-0.9-0.2-1.3-0.5c-0.3-0.3-0.5-0.8-0.5-1.3c0-0.6,0.2-1,0.5-1.3c0.4-0.3,0.8-0.5,1.4-0.5c0.9,0,1.5,0.4,1.9,1.2
			c0.2,0.5,0.3,1,0.3,1.6c0,0.6-0.1,1.1-0.2,1.4c-0.1,0.4-0.3,0.7-0.5,0.9c-0.4,0.4-0.9,0.7-1.5,0.7c-0.6,0-1.2-0.2-1.6-0.6l0.5-0.7
			c0.1,0.1,0.3,0.2,0.5,0.3C90.4,65.9,90.6,66,90.7,66z M90.9,63.9c0.3,0,0.6-0.1,0.8-0.3c0.2-0.2,0.3-0.4,0.3-0.7
			c0-0.3-0.1-0.5-0.3-0.7c-0.2-0.2-0.5-0.3-0.8-0.3c-0.3,0-0.6,0.1-0.8,0.3c-0.2,0.2-0.3,0.4-0.3,0.7c0,0.3,0.1,0.5,0.3,0.7
			C90.3,63.8,90.6,63.9,90.9,63.9z"/>
		<path class="st0" d="M96.2,66c0.5,0,0.9-0.2,1.1-0.5c0.2-0.3,0.4-0.8,0.4-1.4c-0.1,0.1-0.3,0.3-0.6,0.4c-0.2,0.1-0.5,0.2-0.8,0.2
			c-0.5,0-0.9-0.2-1.3-0.5c-0.3-0.3-0.5-0.8-0.5-1.3c0-0.6,0.2-1,0.5-1.3c0.4-0.3,0.8-0.5,1.4-0.5c0.9,0,1.5,0.4,1.9,1.2
			c0.2,0.5,0.3,1,0.3,1.6c0,0.6-0.1,1.1-0.2,1.4c-0.1,0.4-0.3,0.7-0.5,0.9c-0.4,0.4-0.9,0.7-1.5,0.7c-0.6,0-1.2-0.2-1.6-0.6l0.5-0.7
			c0.1,0.1,0.3,0.2,0.5,0.3C95.8,65.9,96,66,96.2,66z M96.3,63.9c0.3,0,0.6-0.1,0.8-0.3c0.2-0.2,0.3-0.4,0.3-0.7
			c0-0.3-0.1-0.5-0.3-0.7c-0.2-0.2-0.5-0.3-0.8-0.3c-0.3,0-0.6,0.1-0.8,0.3c-0.2,0.2-0.3,0.4-0.3,0.7c0,0.3,0.1,0.5,0.3,0.7
			C95.8,63.8,96,63.9,96.3,63.9z"/>
		<path class="st0" d="M100.7,61.5c0.4-0.3,0.8-0.4,1.3-0.4c0.5,0,1,0.1,1.3,0.4c0.4,0.3,0.5,0.6,0.5,1.1c0,0.4-0.2,0.8-0.6,1.1
			c0.5,0.3,0.8,0.8,0.8,1.4c0,0.5-0.2,0.9-0.6,1.2c-0.4,0.3-0.9,0.5-1.5,0.5c-0.6,0-1.1-0.2-1.5-0.5c-0.4-0.3-0.6-0.7-0.6-1.2
			c0-0.6,0.3-1.1,0.8-1.4c-0.4-0.3-0.6-0.7-0.6-1.1C100.1,62.1,100.3,61.7,100.7,61.5z M101.2,65.8c0.2,0.2,0.5,0.2,0.8,0.2
			c0.3,0,0.5-0.1,0.8-0.2c0.2-0.2,0.4-0.4,0.4-0.7c0-0.3-0.1-0.5-0.4-0.7c-0.2-0.2-0.5-0.2-0.8-0.2c-0.3,0-0.6,0.1-0.8,0.2
			c-0.2,0.2-0.4,0.4-0.4,0.7C100.9,65.4,101,65.6,101.2,65.8z M101.3,63.2c0.2,0.2,0.4,0.2,0.7,0.2c0.3,0,0.5-0.1,0.7-0.2
			c0.2-0.2,0.3-0.4,0.3-0.6c0-0.2-0.1-0.4-0.3-0.6c-0.2-0.2-0.4-0.2-0.7-0.2c-0.3,0-0.5,0.1-0.7,0.2c-0.2,0.2-0.3,0.4-0.3,0.6
			C101,62.9,101.1,63,101.3,63.2z"/>
	</g>
	<rect x="0" y="0" class="st1" width="160" height="43.2"/>
	<path class="st2" d="M37.5,32.7V10.2h4.3v22.4H37.5z"/>
	<path class="st2" d="M47.5,32.7l2-22.4h6l3.7,15.3l3.7-15.3h5.9l2.1,22.4h-4.2l-1.5-15l-3.6,15h-4.8l-3.8-15l-1.3,15H47.5z"/>
	<path class="st2" d="M101.4,28.3V10.2h4.3v16.9c0,0.8,0.2,1.2,0.6,1.4c0.3,0.1,0.7,0.2,1.3,0.2h7.7v4H106
		C102.9,32.7,101.4,31.2,101.4,28.3z"/>
	<path class="st2" d="M145.3,32.7V10.2h4.3v22.4H145.3z"/>
	<polygon class="st2" points="82.1,28.8 83.6,23.9 83.6,23.9 86.3,15.9 88.8,23.9 88.8,23.9 89.5,26.2 91.2,32 91.4,32.7 96,32.7 
		88.7,10.2 83.8,10.2 76.3,32.7 80.9,32.7 	"/>
	<polygon class="st2" points="126,28.8 127.5,23.9 127.5,23.9 130.2,15.9 132.7,23.9 132.7,23.9 133.3,26.2 135.1,32 135.3,32.7 
		139.9,32.7 132.6,10.2 127.7,10.2 120.1,32.7 124.7,32.7 	"/>
	<rect x="10.3" y="10.3" class="st2" width="4.4" height="22.6"/>
	<rect x="28.5" y="10.3" class="st2" width="4.4" height="22.6"/>
	<polygon class="st2" points="14.7,23.3 16.7,20 18.1,20.8 17.2,23 20.6,18.5 21.9,20.1 20.5,22.9 25.2,16.4 28.5,23.3 	"/>
	<polygon class="st0" points="14.7,23.3 16.7,26.7 18.1,25.9 17.2,23.7 20.6,28.1 21.9,26.5 20.5,23.7 25.2,30.3 28.5,23.3 	"/>
	<rect x="109.2" y="63.7" class="st0" width="50.7" height="1"/>
	<rect x="0" y="63.7" class="st0" width="50.7" height="1"/>
</g>
</svg>
